…
We use the readr function`read_csv()` instead of the base R function `read.csv()` used in the *QSS* text. It is slightly faster, and returns a `tibble` instead of a data frame. Check this by calling `class()` on the new object.

```r
class(UNpop)
#> [1] "tbl_df"     "tbl"        "data.frame"
UNpop
#> # A tibble: 7 x 2
#>    year world.pop
#>   <int>     <int>
#> 1  1950   2525779
#> 2  1960   3026003
#> 3  1970   3691173
#> 4  1980   4449049
#> 5  1990   5320817
#> 6  2000   6127700
#> # ... with 1 more row
```
…
```r
slice(UNpop, 1:3)
#> # A tibble: 3 x 2
#>    year world.pop
#>   <int>     <int>
#> 1  1950   2525779
#> 2  1960   3026003
#> 3  1970   3691173
```

Base R allows you to choose the column `world.pop` column from the `UNpop` data frame:

```r
UNpop[, "world.pop"]
#> # A tibble: 7 x 1
#>   world.pop
#>       <int>
#> 1   2525779
#> 2   3026003
#> 3   3691173
#> 4   4449049
#> 5   5320817
#> 6   6127700
#> # ... with 1 more row

UNpop$world.pop
#> [1] 2525779 3026003 3691173 4449049 5320817 6127700 6916183

UNpop[["world.pop"]]
#> [1] 2525779 3026003 3691173 4449049 5320817 6127700 6916183

select(UNpop, world.pop)
#> # A tibble: 7 x 1
#>   world.pop
#>       <int>
#> 1   2525779
#> 2   3026003
#> 3   3691173
#> 4   4449049
#> 5   5320817
#> 6   6127700
#> # ... with 1 more row
```
…
### Programming and Learning Tips

Use the [haven](http://haven.tidyverse.org/) package to read and write Stata (`.dta`) and SPSS (`.sav`) files.
Stata and SPSS are two other statistical programs commonly used in social science.
Even if you don't ever use them, you'll almost certainly encounter data stored in their native formats.

```r
UNpop_dta_url <- "https://github.com/kosukeimai/qss/raw/master/INTRO/UNpop.dta"
UNpop <- read_dta(UNpop_dta_url)
UNpop
#> # A tibble: 7 x 2
#>    year world_pop
#>   <dbl>     <dbl>
#> 1  1950      2526
#> 2  1960      3026
#> 3  1970      3691
#> 4  1980      4449
#> 5  1990      5321
#> 6  2000      6128
#> # ... with 1 more row
```
…
