…
We can use that same approach to calculate the mean of first names, and use
`arrange` to sort in ascending order.

```r
resume %>%
  group_by(firstname) %>%
  summarise(call = mean(call)) %>%
  arrange(call)
#> # A tibble: 36 x 2
#>   firstname   call
#>       <chr>  <dbl>
#> 1     Aisha 0.0222
#> 2   Rasheed 0.0299
#> 3    Keisha 0.0383
#> 4  Tremayne 0.0435
#> 5    Kareem 0.0469
#> 6   Darnell 0.0476
#> # ... with 30 more rows
```
…
<img src="causality_files/figure-html/unnamed-chunk-43-1.png" width="70%" style="display: block; margin: auto;" />

In the QSS text, only Burger King restaurants are compared. 
However, **dplyr** makes this easy.
All we have to do is change the `group_by` statement we used last time,
and add chain to it:


```r
full_prop_by_state_chain <-
  minwage %>%
  group_by(state, chain) %>%
  summarise(fullPropAfter = mean(fullPropAfter))
full_prop_by_state_chain
#> # A tibble: 8 x 3
#> # Groups:   state [?]
#>   state      chain fullPropAfter
#>   <chr>      <chr>         <dbl>
#> 1    NJ burgerking         0.358
#> 2    NJ        kfc         0.328
#> 3    NJ       roys         0.283
#> 4    NJ     wendys         0.260
#> 5    PA burgerking         0.321
#> 6    PA        kfc         0.236
#> # ... with 2 more rows
```
…
