…
```r
DIR_SOURCE <- system.file("extdata/federalist", package = "qss")
corpus_raw <- VCorpus(DirSource(directory = DIR_SOURCE, pattern = "fp"))
corpus_raw
#> <<VCorpus>>
#> Metadata:  corpus specific: 0, document level (indexed): 0
#> Content:  documents: 85
```

Use the function [tidy](https://www.rdocumentation.org/packages/tidyytext/topics/tidy.Corpus) to convert the  to a data frame with one row per document.

```r
corpus_tidy <- tidy(corpus_raw, "corpus")
corpus_tidy
#> # A tibble: 85 x 8
#>   author datetimestamp       description heading id     lang… orig… text  
#>   <lgl>  <dttm>              <lgl>       <lgl>   <chr>  <chr> <lgl> <chr> 
#> 1 NA     2018-01-10 16:44:39 NA          NA      fp01.… en    NA    AFTER…
#> 2 NA     2018-01-10 16:44:39 NA          NA      fp02.… en    NA    "WHEN…
#> 3 NA     2018-01-10 16:44:39 NA          NA      fp03.… en    NA    IT IS…
#> 4 NA     2018-01-10 16:44:39 NA          NA      fp04.… en    NA    "MY L…
#> 5 NA     2018-01-10 16:44:39 NA          NA      fp05.… en    NA    "QUEE…
#> 6 NA     2018-01-10 16:44:39 NA          NA      fp06.… en    NA    "THE …
#> # ... with 79 more rows
```
…
The 10 most important words for Paper No. 12 are

```r
dtm %>%
  filter(document == 12) %>%
  top_n(10, tf_idf)
#> # A tibble: 10 x 6
#>   document word           n      tf   idf  tf_idf
#>      <int> <chr>      <int>   <dbl> <dbl>   <dbl>
#> 1       12 cent           2 0.00199  4.44 0.00884
#> 2       12 coast          3 0.00299  3.75 0.0112 
#> 3       12 commerc        8 0.00796  1.11 0.00884
#> 4       12 contraband     3 0.00299  4.44 0.0133 
#> 5       12 excis          5 0.00498  2.65 0.0132 
#> 6       12 gallon         2 0.00199  4.44 0.00884
#> # ... with 4 more rows
```
and for Paper No. 24,

```r
dtm %>%
  filter(document == 24) %>%
  top_n(10, tf_idf)
#> # A tibble: 10 x 6
#>   document word         n      tf   idf  tf_idf
#>      <int> <chr>    <int>   <dbl> <dbl>   <dbl>
#> 1       24 armi         7 0.00858  1.26 0.0108 
#> 2       24 arsenal      2 0.00245  3.75 0.00919
#> 3       24 dock         3 0.00368  4.44 0.0163 
#> 4       24 frontier     3 0.00368  2.83 0.0104 
#> 5       24 garrison     6 0.00735  2.83 0.0208 
#> 6       24 nearer       2 0.00245  3.34 0.00820
#> # ... with 4 more rows
```
…
The centers of the clusters is a cluster x word matrix. We want to transpose it
and then append columns to `hamilton_words` so the location of each word in the cluster is listed.

```r
dim(km_out$centers)
#> [1]    4 3850
```

```r
hamilton_words <- bind_cols(hamilton_words, as_tibble(t(km_out$centers)))
hamilton_words
#> # A tibble: 3,850 x 5
#>   word            `1`      `2`     `3`      `4`
#>   <chr>         <dbl>    <dbl>   <dbl>    <dbl>
#> 1 abl        0.000939 0.000743 0       0       
#> 2 absurd     0        0.000517 0       0.000882
#> 3 accid      0        0.000202 0       0       
#> 4 accord     0        0.000399 0       0.000852
#> 5 acknowledg 0        0.000388 0       0.000473
#> 6 act        0        0.000560 0.00176 0.000631
#> # ... with 3,844 more rows
```
…
