QSS Tidyverse Code
…
We can cast data into the tidytext format either from the Corpus object, or, after processing, from the document-term matrix object.

DIR_SOURCE <- file.path("qss", "DISCOVERY", "federalist")
corpus_raw <- Corpus(DirSource(directory = DIR_SOURCE, pattern = "fp")) 
corpus_raw
#> <<VCorpus>>
#> Metadata:  corpus specific: 0, document level (indexed): 0
#> Content:  documents: 85

Use the tidy function to convert it to a data frame with one row per document.

corpus_tidy <- tidy(corpus_raw)
corpus_tidy
#> # A tibble: 85 × 8
#>   author       datetimestamp description heading       id language origin
#>    <lgl>              <dttm>       <lgl>   <lgl>    <chr>    <chr>  <lgl>
#> 1     NA 2017-01-16 18:48:05          NA      NA fp01.txt       en     NA
#> 2     NA 2017-01-16 18:48:05          NA      NA fp02.txt       en     NA
#> 3     NA 2017-01-16 18:48:05          NA      NA fp03.txt       en     NA
#> 4     NA 2017-01-16 18:48:05          NA      NA fp04.txt       en     NA
#> 5     NA 2017-01-16 18:48:05          NA      NA fp05.txt       en     NA
#> 6     NA 2017-01-16 18:48:05          NA      NA fp06.txt       en     NA
#> # ... with 79 more rows, and 1 more variables: text <chr>
…
The 10 most important words for Paper No. 12 are

dtm %>%
  filter(document == 12) %>%
  top_n(10, tf_idf)
#> Source: local data frame [10 x 6]
#> Groups: document [1]
#> 
#>   document        word     n      tf   idf tf_idf
#>      <int>       <chr> <int>   <dbl> <dbl>  <dbl>
#> 1       12        cent     2 0.00250  4.44 0.0111
#> 2       12  contraband     3 0.00375  4.44 0.0167
#> 3       12      duties     8 0.01001  1.26 0.0127
#> 4       12      excise     2 0.00250  4.44 0.0111
#> 5       12 importation     3 0.00375  3.06 0.0115
#> 6       12     patrols     3 0.00375  4.44 0.0167
#> # ... with 4 more rows

and for Paper No. 24,

dtm %>%
  filter(document == 24) %>%
  top_n(10, tf_idf)
#> Source: local data frame [10 x 6]
#> Groups: document [1]
#> 
#>   document           word     n      tf   idf tf_idf
#>      <int>          <chr> <int>   <dbl> <dbl>  <dbl>
#> 1       24         armies     5 0.00770  1.73 0.0134
#> 2       24           dock     3 0.00462  4.44 0.0205
#> 3       24 establishments     7 0.01079  1.55 0.0167
#> 4       24       frontier     3 0.00462  2.83 0.0131
#> 5       24      garrisons     6 0.00924  2.83 0.0262
#> 6       24          posts     3 0.00462  3.06 0.0141
#> # ... with 4 more rows
…
Dataframe with the unique terms used by Hamilton. I extract these from the colnames of the DTM after cast_dtm to ensure that the order is the same as the k-means results.

hamilton_words <- 
  tibble(word = colnames(cast_dtm(dtm_hamilton, document, word, tf_idf)))

The centers of the clusters is a cluster x word matrix. We want to transpose it and then append columns to hamilton_words so the location of each word in the cluster is listed.

dim(km_out$centers)
#> [1]    4 6457

hamilton_words <- bind_cols(hamilton_words, as_tibble(t(km_out$centers)))
hamilton_words
#> # A tibble: 6,457 × 5
#>          word      `1`      `2`     `3`      `4`
#>         <chr>    <dbl>    <dbl>   <dbl>    <dbl>
#> 1           1 0.000897 0.000627 0.00251 0.000569
#> 2      absurd 0.000797 0.000633 0.00000 0.000000
#> 3    accident 0.000000 0.000307 0.00000 0.000000
#> 4 acknowledge 0.000886 0.000724 0.00000 0.000000
#> 5         act 0.000438 0.000757 0.00000 0.001071
#> 6    actuated 0.000000 0.000380 0.00000 0.000000
#> # ... with 6,451 more rows
…
