QSS Tidyverse Code
…
qss_data_url <-
function(chapter, file) {
  stringr::str_c("https://raw.githubusercontent.com/kosukeimai/qss/master/",
        stringr::str_to_upper(chapter), "/", file)
}

This function returns the URL to a data set.

qss_data_url("intro", "Kenya.csv")
#> [1] "https://raw.githubusercontent.com/kosukeimai/qss/master/INTRO/Kenya.csv"

Since URLs can be used for paths to files, this can be used to easily load data directly from the site:

read_csv(qss_data_url("intro", "Kenya.csv"))
#> # A tibble: 30 × 8
#>   country    period   age births deaths py.men py.women    l_x
#>     <chr>     <chr> <chr>  <dbl>  <dbl>  <dbl>    <dbl>  <dbl>
#> 1     KEN 1950-1955   0-4      0  398.3   2983     2978 100000
#> 2     KEN 1950-1955   5-9      0   36.8   1978     1970  75157
#> 3     KEN 1950-1955 10-14      0   19.5   1635     1634  71365
#> 4     KEN 1950-1955 15-19    264   18.5   1589     1565  69469
#> 5     KEN 1950-1955 20-24    486   21.4   1428     1364  67421
#> 6     KEN 1950-1955 25-29    383   20.4   1205     1106  64855
#> # ... with 24 more rows
…
When reading from csv files use readr::read_csv instead of the base R function read.csv. It is slightly faster, and returns a tibble instead of a data frame. See R for Data Science Ch 11: Data Import for more dicussion.

We also can load it directly from a URL.

UNpop <- read_csv(qss_data_url("INTRO", "UNpop.csv"))
#> Parsed with column specification:
#> cols(
#>   year = col_integer(),
#>   world.pop = col_integer()
#> )
class(UNpop)
#> [1] "tbl_df"     "tbl"        "data.frame"
UNpop
#> # A tibble: 7 × 2
#>    year world.pop
#>   <int>     <int>
#> 1  1950   2525779
#> 2  1960   3026003
#> 3  1970   3691173
#> 4  1980   4449049
#> 5  1990   5320817
#> 6  2000   6127700
#> # ... with 1 more rows
…
is equivalent to

UNpop %>% slice(1:3)
#> # A tibble: 3 × 2
#>    year world.pop
#>   <int>     <int>
#> 1  1950   2525779
#> 2  1960   3026003
#> 3  1970   3691173

UNpop[, "world.pop"]
#> # A tibble: 7 × 1
#>   world.pop
#>       <int>
#> 1   2525779
#> 2   3026003
#> 3   3691173
#> 4   4449049
#> 5   5320817
#> 6   6127700
#> # ... with 1 more rows

is almost equivalent to

select(UNpop, world.pop)
#> # A tibble: 7 × 1
#>   world.pop
#>       <int>
#> 1   2525779
#> 2   3026003
#> 3   3691173
#> 4   4449049
#> 5   5320817
#> 6   6127700
#> # ... with 1 more rows
…
Do not save the work space using save.image. This is an extremely bad idea for reproducibility. See R for Data Science chapter Workflow Projects. You should uncheck the options in RStudio to avoid saving and restoring from .RData files. This will help ensure that your R code runs the way you think it does, instead of depending on some long forgotten code that is only saved in the workspace image.

Everything important should be in a script. Anything saved or loaded from file should be done explicitly.

As with reading CSV files, use the readr package functions. In this case, write_csv writes a csv file

write_csv(UNpop, "UNpop.csv")

2.2.3 Packages

Instead of foreign for reading and writing Stata and SPSS files, use haven. One reason to do so is that it is better maintained. The R function read.dta does not read files created by the most recent versions of Stata (13+).

read_dta(qss_data_url("INTRO", "UNpop.dta"))
#> # A tibble: 7 × 2
#>    year world_pop
#>   <dbl>     <dbl>
#> 1  1950      2526
#> 2  1960      3026
#> 3  1970      3691
#> 4  1980      4449
#> 5  1990      5321
#> 6  2000      6128
#> # ... with 1 more rows
…
