Quantitive Social Science: The R Tidyverse Code
…
Use count to calculate the proportion of respondents who answer that they were harmed by the ISAF or the Taliban (violent.exp.ISAF and violent.exp.taliban, respectively):

afghan %>%
  group_by(violent.exp.ISAF, violent.exp.taliban) %>%
  count() %>%
  ungroup() %>%
  mutate(prop = n / sum(n))
#> # A tibble: 9 x 4
#>   violent.exp.ISAF violent.exp.taliban     n    prop
#>              <int>               <int> <int>   <dbl>
#> 1                0                   0  1330 0.48293
#> 2                0                   1   354 0.12854
#> 3                0                  NA    22 0.00799
#> 4                1                   0   475 0.17248
#> 5                1                   1   526 0.19099
#> 6                1                  NA    22 0.00799
#> # ... with 3 more rows
…
Table of proportions of individuals harmed by the ISAF and Taliban that includes missing (NA) values:

violent_exp_prop <-
  afghan %>%
  group_by(violent.exp.ISAF, violent.exp.taliban) %>%
  count() %>%
  ungroup() %>%
  mutate(prop = n / sum(n)) %>%
  select(-n)
violent_exp_prop
#> # A tibble: 9 x 3
#>   violent.exp.ISAF violent.exp.taliban    prop
#>              <int>               <int>   <dbl>
#> 1                0                   0 0.483  
#> 2                0                   1 0.129  
#> 3                0                  NA 0.00799
#> 4                1                   0 0.172  
#> 5                1                   1 0.191  
#> 6                1                  NA 0.00799
#> # ... with 3 more rows
…
To calculate a measure of party polarization take the code used in the plot of Republican and Democratic party median ideal points and adapt it to calculate the difference in the party medians:

party_polarization <-
  congress %>%
  group_by(congress, party) %>%
  summarise(dwnom1 = mean(dwnom1)) %>%
  filter(party %in% c("Democrat", "Republican")) %>%
  spread(party, dwnom1) %>%
  mutate(polarization = Republican - Democrat)
party_polarization
#> # A tibble: 33 x 4
#> # Groups: congress [33]
#>   congress Democrat Republican polarization
#>      <int>    <dbl>      <dbl>        <dbl>
#> 1       80   -0.146      0.276        0.421
#> 2       81   -0.195      0.264        0.459
#> 3       82   -0.180      0.265        0.445
#> 4       83   -0.181      0.261        0.442
#> 5       84   -0.209      0.261        0.471
#> 6       85   -0.214      0.250        0.464
#> # ... with 27 more rows
…
The package ggplot2 includes a function stat_qq which can be used to create qq-plots but it is more suited to comparing a sample distribution with a theoretical distribution, usually the normal one.
However, we can calculate one by hand, which may give more insight into exactly what the qq-plot is doing.

party_qtiles <- tibble(
  probs = seq(0, 1, by = 0.01),
  Democrat = quantile(filter(congress, congress == 112,
                             party == "Democrat")$dwnom2,
         probs = probs),
  Republican = quantile(filter(congress, congress == 112,
                               party == "Republican")$dwnom2,
         probs = probs)
)
party_qtiles
#> # A tibble: 101 x 3
#>    probs Democrat Republican
#>    <dbl>    <dbl>      <dbl>
#> 1 0        -0.925     -1.38 
#> 2 0.0100   -0.672     -0.720
#> 3 0.0200   -0.619     -0.566
#> 4 0.0300   -0.593     -0.526
#> 5 0.0400   -0.567     -0.468
#> 6 0.0500   -0.560     -0.436
#> # ... with 95 more rows
…
