…
To get the last poll in each state, arrange and filter on `middate`

```r
last_polls <- 
  polls_w_results %>%
  arrange(state, desc(middate)) %>%
  group_by(state) %>%
  slice(1)
last_polls
#> Source: local data frame [51 x 9]
#> Groups: state [51]
#> 
#>   state        Pollster Obama McCain    middate margin
#>   <chr>           <chr> <int>  <int>     <date>  <int>
#> 1    AK Research 2000-3    39     58 2008-10-29    -19
#> 2    AL     SurveyUSA-2    36     61 2008-10-27    -25
#> 3    AR           ARG-4    44     51 2008-10-29     -7
#> 4    AZ           ARG-3    46     50 2008-10-29     -4
#> 5    CA     SurveyUSA-3    60     36 2008-10-30     24
#> 6    CO           ARG-3    52     45 2008-10-29      7
#> # ... with 45 more rows, and 3 more variables: `ELECTION_DAY -
#> #   middate` <time>, elec_margin <int>, error <int>
```
…
pop_vote_avg <- bind_rows(pop_vote_avg)
```

It is easier to plot this if the data are tidy, with `Obama` and `McCain` as categories of a column `candidate`.

```r
pop_vote_avg_tidy <-
  pop_vote_avg %>% 
  gather(candidate, share, -date, na.rm = TRUE)
pop_vote_avg_tidy
#> # A tibble: 598 × 3
#>         date candidate share
#> *     <date>     <chr> <dbl>
#> 1 2008-01-09     Obama    49
#> 2 2008-01-10     Obama    46
#> 3 2008-01-11     Obama    45
#> 4 2008-01-12     Obama    45
#> 5 2008-01-13     Obama    45
#> 6 2008-01-14     Obama    45
#> # ... with 592 more rows
```
…
### Regresion towards the mean

### Merging Data Sets in R

See the [R for Data Science](http://r4ds.had.co.nz/) chapter [Relational data](http://r4ds.had.co.nz/relational-data.html).


```r
pres12 <- read_csv(qss_data_url("prediction", "pres12.csv"))
```


```r
full_join(pres08, pres12, by = "state")
#> # A tibble: 51 × 9
#>   state.name state Obama.x McCain  EV.x margin Obama.y Romney  EV.y
#>        <chr> <chr>   <int>  <int> <int>  <int>   <int>  <int> <int>
#> 1    Alabama    AL      39     60     9    -21      38     61     9
#> 2     Alaska    AK      38     59     3    -21      41     55     3
#> 3    Arizona    AZ      45     54    10     -9      45     54    11
#> 4   Arkansas    AR      39     59     6    -20      37     61     6
#> 5 California    CA      61     37    55     24      60     37    55
#> 6   Colorado    CO      54     45     9      9      51     46     9
#> # ... with 45 more rows
```

*Note: this could be a question. How would you change the .x, .y suffixes to something more informative*
To avoid the duplicate names, or change them, you can rename before merging, or
use the `suffix` argument:

```r
pres <- full_join(pres08, pres12, by = "state", suffix = c("_08", "_12"))
pres
#> # A tibble: 51 × 9
#>   state.name state Obama_08 McCain EV_08 margin Obama_12 Romney EV_12
#>        <chr> <chr>    <int>  <int> <int>  <int>    <int>  <int> <int>
#> 1    Alabama    AL       39     60     9    -21       38     61     9
#> 2     Alaska    AK       38     59     3    -21       41     55     3
#> 3    Arizona    AZ       45     54    10     -9       45     54    11
#> 4   Arkansas    AR       39     59     6    -20       37     61     6
#> 5 California    CA       61     37    55     24       60     37    55
#> 6   Colorado    CO       54     45     9      9       51     46     9
#> # ... with 45 more rows
```
…
