Quantitive Social Science: The R Tidyverse Code
…
joint_p <-
  FLVoters %>%
  count(gender, race) %>%
  mutate(prop = n / sum(n))
joint_p
#> # A tibble: 12 x 4
#>   gender race         n    prop
#>   <chr>  <chr>    <int>   <dbl>
#> 1 f      asian       83 0.00911
#> 2 f      black      678 0.0744 
#> 3 f      hispanic   666 0.0731 
#> 4 f      native      17 0.00187
#> 5 f      other      158 0.0173 
#> 6 f      white     3281 0.360  
#> # ... with 6 more rows
…
FLVoters <-
  FLVoters %>%
  mutate(age_group = cut(age, c(0, 20, 40, 60, Inf), right = TRUE,
                         labels = c("<= 20", "20-40", "40-60", "> 60")))

joint3 <-
  FLVoters %>%
  count(race, age_group, gender) %>%
  ungroup() %>%
  mutate(prop = n / sum(n))
joint3
#> # A tibble: 47 x 5
#>   race  age_group gender     n     prop
#>   <chr> <fct>     <chr>  <int>    <dbl>
#> 1 asian <= 20     f          1 0.000110
#> 2 asian <= 20     m          2 0.000219
#> 3 asian 20-40     f         24 0.00263 
#> 4 asian 20-40     m         26 0.00285 
#> 5 asian 40-60     f         38 0.00417 
#> 6 asian 40-60     m         47 0.00516 
#> # ... with 41 more rows
…
Two-way joint probability table for age group and gender

joint2 <- FLVoters %>%
  count(age_group, gender) %>%
  ungroup() %>%
  mutate(prob_age_gender = n / sum(n))
joint2
#> # A tibble: 8 x 4
#>   age_group gender     n prob_age_gender
#>   <fct>     <chr>  <int>           <dbl>
#> 1 <= 20     f         88         0.00966
#> 2 <= 20     m         73         0.00801
#> 3 20-40     f       1304         0.143  
#> 4 20-40     m       1165         0.128  
#> 5 40-60     f       1730         0.190  
#> 6 40-60     m       1555         0.171  
#> # ... with 2 more rows
…
6.2.2 Independence

Create a table with the products of margins of race and age.
Using the function crossing to create a tibble with
all combinations of race and gender and the independent prob.

race_gender_indep <-
  crossing(select(margin_race, race, prob_race = prop),
           select(margin_gender, gender, prob_gender = prop)) %>%
  mutate(prob_indep = prob_race * prob_gender) %>%
  left_join(select(joint_p, gender, race, prob = prop),
            by = c("gender", "race")) %>%
  select(race, gender, everything())
race_gender_indep
#> # A tibble: 12 x 6
#>   race     gender prob_race prob_gender prob_indep    prob
#>   <chr>    <chr>      <dbl>       <dbl>      <dbl>   <dbl>
#> 1 asian    f         0.0192       0.536    0.0103  0.00911
#> 2 asian    m         0.0192       0.464    0.00891 0.0101 
#> 3 black    f         0.131        0.536    0.0702  0.0744 
#> 4 black    m         0.131        0.464    0.0608  0.0566 
#> 5 hispanic f         0.131        0.536    0.0701  0.0731 
#> 6 hispanic m         0.131        0.464    0.0607  0.0577 
#> # ... with 6 more rows
…
