…
```r
joint.p <-
  FLVoters %>%
  count(gender, race) %>%
  # needed because it is still grouped by gender
  ungroup() %>%
  mutate(prop = n / sum(n))
joint.p
#> # A tibble: 12 × 4
#>   gender     race     n    prop
#>    <chr>    <chr> <int>   <dbl>
#> 1      f    asian    83 0.00911
#> 2      f    black   678 0.07440
#> 3      f hispanic   666 0.07308
#> 4      f   native    17 0.00187
#> 5      f    other   158 0.01734
#> 6      f    white  3281 0.36004
#> # ... with 6 more rows
```
…
```r
joint3 <-
  FLVoters %>%
  count(race, age_group, gender) %>%
  ungroup() %>%
  mutate(prop = n / sum(n))
joint3
#> # A tibble: 47 × 5
#>    race age_group gender     n     prop
#>   <chr>     <dbl>  <chr> <int>    <dbl>
#> 1 asian         1      f     1 0.000110
#> 2 asian         1      m     2 0.000219
#> 3 asian         2      f    24 0.002634
#> 4 asian         2      m    26 0.002853
#> 5 asian         3      f    38 0.004170
#> 6 asian         3      m    47 0.005157
#> # ... with 41 more rows
```
…
Two-way joint probability table for age group and gender

```r
joint2 <- FLVoters %>%
  count(age_group, gender) %>%
  ungroup() %>%
  mutate(prob_age_gender = n / sum(n)) 
joint2
#> # A tibble: 8 × 4
#>   age_group gender     n prob_age_gender
#>       <dbl>  <chr> <int>           <dbl>
#> 1         1      f    88         0.00966
#> 2         1      m    73         0.00801
#> 3         2      f  1304         0.14309
#> 4         2      m  1165         0.12784
#> 5         3      f  1730         0.18984
#> 6         3      m  1555         0.17064
#> # ... with 2 more rows
```

Conditional probablities $P(race | gender, age)$,

```r
left_join(joint3, select(joint2, -n), by = c("age_group", "gender")) %>%
  mutate(prob_race = prop / prob_age_gender) %>% 
  arrange(age_group, gender) %>%
  select(age_group, gender, race, prob_race)
#> # A tibble: 47 × 4
#>   age_group gender     race prob_race
#>       <dbl>  <chr>    <chr>     <dbl>
#> 1         1      f    asian    0.0114
#> 2         1      f    black    0.1705
#> 3         1      f hispanic    0.1591
#> 4         1      f   native    0.0114
#> 5         1      f    other    0.0341
#> 6         1      f    white    0.6136
#> # ... with 41 more rows
```
…
