…
### Margin of Error and Sample Size Calculation in Polls

**tidyverse** Write a function to calculate the sample size needed for a given proportion.

```r
moe_pop_prop <- function(MoE) {
  tibble(p = seq(from = 0.01, to = 0.99, by = 0.01),
         n = 1.96 ^ 2 * p * (1 - p) / MoE ^ 2,
         MoE = MoE)
}
moe_pop_prop(0.01)
#> # A tibble: 99 x 3
#>       p     n   MoE
#>   <dbl> <dbl> <dbl>
#> 1  0.01   380  0.01
#> 2  0.02   753  0.01
#> 3  0.03  1118  0.01
#> 4  0.04  1475  0.01
#> 5  0.05  1825  0.01
#> 6  0.06  2167  0.01
#> # ... with 93 more rows
```
…
# Add actual outcome
poll_pred <-
  left_join(poll_pred, 
            select(pres08, state, actual = Obama), 
            by = "state") %>%
  mutate(actual = actual / 100,
         covers = (ci_lwr <= actual) & (actual <= ci_upr))
poll_pred
#> # A tibble: 51 x 7
#>   state Obama     se ci_lwr ci_upr actual covers
#>   <chr> <dbl>  <dbl>  <dbl>  <dbl>  <dbl>  <lgl>
#> 1    AK 0.390 0.0154  0.360  0.420   0.38   TRUE
#> 2    AL 0.360 0.0152  0.330  0.390   0.39  FALSE
#> 3    AR 0.440 0.0157  0.409  0.471   0.39  FALSE
#> 4    AZ 0.465 0.0158  0.434  0.496   0.45   TRUE
#> 5    CA 0.600 0.0155  0.570  0.630   0.61   TRUE
#> 6    CO 0.520 0.0158  0.489  0.551   0.54   TRUE
#> # ... with 45 more rows
```
…
