Quantitive Social Science: The R Tidyverse Code
…
7.1.4 Margin of Error and Sample Size Calculation in Polls

Write a function to calculate the sample size needed for a given proportion.

moe_pop_prop <- function(MoE) {
  tibble(p = seq(from = 0.01, to = 0.99, by = 0.01),
         n = 1.96 ^ 2 * p * (1 - p) / MoE ^ 2,
         MoE = MoE)
}
moe_pop_prop(0.01)
#> # A tibble: 99 x 3
#>        p     n    MoE
#>    <dbl> <dbl>  <dbl>
#> 1 0.0100  380. 0.0100
#> 2 0.0200  753. 0.0100
#> 3 0.0300 1118. 0.0100
#> 4 0.0400 1475. 0.0100
#> 5 0.0500 1825. 0.0100
#> 6 0.0600 2167. 0.0100
#> # ... with 93 more rows
…
alpha <- 0.05
poll_pred <-
  poll_pred %>%
  mutate(se = sqrt(Obama * (1 - Obama) / sample_size),
         ci_lwr = Obama + qnorm(alpha / 2) * se,
         ci_upr = Obama + qnorm(1 - alpha / 2) * se)
# Add actual outcome
poll_pred <-
  left_join(poll_pred,
            select(pres08, state, actual = Obama),
            by = "state") %>%
  mutate(actual = actual / 100,
         covers = (ci_lwr <= actual) & (actual <= ci_upr))
poll_pred
#> # A tibble: 51 x 7
#>   state Obama     se ci_lwr ci_upr actual covers
#>   <chr> <dbl>  <dbl>  <dbl>  <dbl>  <dbl> <lgl> 
#> 1 AK    0.390 0.0154  0.360  0.420  0.380 TRUE  
#> 2 AL    0.360 0.0152  0.330  0.390  0.390 FALSE 
#> 3 AR    0.440 0.0157  0.409  0.471  0.390 FALSE 
#> 4 AZ    0.465 0.0158  0.434  0.496  0.450 TRUE  
#> 5 CA    0.600 0.0155  0.570  0.630  0.610 TRUE  
#> 6 CO    0.520 0.0158  0.489  0.551  0.540 TRUE  
#> # ... with 45 more rows
…
